{
    "dsfg": {
        "look": {
            "name": "look",
            "vars": {
                "age": "int"
            },
            "typeHint": "float",
            "body": "return age * 2.5"
        }
    }
}